BACHELOR OF BUSINESS ADMINISTRATION (HONS),M3010,Bachelor,120,AeU
BACHELOR OF DIGITAL CREATIVE MEDIA (HONS),C3050,Bachelor,120,AeU
BACHELOR OF EDUCATION (EARLY CHILDHOOD EDUCATION) HONOURS,E3040,Bachelor,120,AeU
BACHELOR OF EDUCATION (TEACHING ISLAMIC STUDIES IN PRIMARY SCHOOL) WITH HONOURS,A3010,Bachelor,120,AeU
BACHELOR OF EDUCATION (TEACHING MALAY LANGUAGE IN PRIMARY SCHOOL) WITH HONOURS,E3020,Bachelor,120,AeU
BACHELOR OF EDUCATION (TESL) (HONS),E3010,Bachelor,120,AeU
BACHELOR OF INFORMATION AND COMMUNICATION TECHNOLOGY (HONS),C3010,Bachelor,120,AeU
BACHELOR OF TECHNOLOGY (INFORMATION TECHNOLOGY) (HONS),C3060,Bachelor,120,AeU
DIPLOMA IN ISLAMIC STUDIES,A2010,Diploma,90,AeU
DOCTOR OF BUSINESS ADMINISTRATION,M7020,Doctoral,80,AeU
DOCTOR OF PHILOSOPHY (ARTS),A7010,Doctoral,NULL,AeU
DOCTOR OF PHILOSOPHY (BUSINESS ADMINISTRATION),M7010,Doctoral,NULL,AeU
DOCTOR OF PHILOSOPHY (EDUCATION),E7010,Doctoral,NULL,AeU
DOCTOR OF PHILOSOPHY (HUMANITIES),A7020,Doctoral,NULL,AeU
DOCTOR OF PHILOSOPHY (INFORMATION & COMMUNICATION TECHNOLOGY),C7010,Doctoral,NULL,AeU
EXECUTIVE MASTER IN BUSINESS PROCESS MANAGEMENT,C6030,Executive Master,NULL,AeU
EXECUTIVE MASTER IN ISLAMIC BANKING AND FINANCE,M6080,Executive Master,NULL,AeU
EXECUTIVE MASTER IN PUBLIC ADMINISTRATION,M6060,Executive Master,NULL,AeU
EXECUTIVE MASTER IN STRATEGIC HUMAN RESOURCE MANAGEMENT,M6070,Executive Master,NULL,AeU
EXECUTIVE MASTER OF BUSINESS ADMINISTRATION,M6040,Executive Master,30,AeU
MASTER IN INFORMATION AND COMMUNICATION TECHNOLOGY MANAGEMENT,C6040,Master,42,AeU
MASTER IN MANAGEMENT,M6030,Master,42,AeU
MASTER OF EDUCATION,E6010,Master,42,AeU
MASTER OF HUMAN RESOURCE MANAGEMENT,M6100,Master,42,AeU
MASTER OF HUMANITIES,A6030,Master,NULL,AeU
MASTER OF HUMANITIES AND ARTS,A6020,Master,NULL,AeU
MASTER OF KNOWLEDGE MANAGEMENT,M6090,Master,42,AeU
MASTER OF SCIENCE (MANAGEMENT),M6020,Master,NULL,AeU
MASTER OF SOCIAL SCIENCES,A6010,Master,NULL,AeU
OPEN PROGRAMME,G000,Certificates,NULL,AeU
PHD BUSINESS ADMINISTRATION,G701,Doctoral,NULL,AeU
POSTGRADUATE DIPLOMA IN SOFTWARE DEVELOPMENT,C5010,Postgraduate Diploma,NULL,AeU
SARJANA MUDA PENDIDIKAN (PENGAJARAN BAHASA MELAYU SEKOLAH RENDAH) DENGAN KEPUJIAN,E3022,Bachelor,NULL,AeU
MASTER OF BUSINESS ADMINISTRATION,M6017,Master,42,AeU
INDUSTRIAL DOCTORATE,G701M,Certificates,NULL,AeU
MBA DUAL AWARD AEU/IBSS,M6010,Certificates,NULL,AeU
PROFESSIONAL BACHELOR OF COMPUTER TECHNOLOGY,C3020,Bachelor,NULL,AeU
PROFESSIONAL BACHELOR OF DIGITAL CREATIVE MEDIA,C3030,Bachelor,NULL,AeU
PROFESSIONAL BACHELOR OF INTERNET MARKETING TECHNOLOGY,C3070,Bachelor,NULL,AeU
PROFESSIONAL DIPLOMA IN PSYCHOLOGY,E2020,Professional Diploma,NULL,AeU
PROFESSIONAL DIPLOMA IN SPECIAL EDUCATION,E2010,Professional Diploma,NULL,AeU
STANDALONE AUDIT COURSE (M1020),M1020,Certificates,NULL,AeU
STANDALONE FULL COURSE (M1010),M1010,Certificates,NULL,AeU
ASIAN EXECUTIVE MASTER IN OPEN SOURCE COMPUTING,C6010,Executive Master,NULL,AeU
ASIAN EXECUTIVE MASTER IN OPEN SOURCE ERP,C6020,Executive Master,NULL,AeU
CERTIFICATE IN ENGLISH LANGUAGE COMPETENCY,A1010,Certificates,NULL,AeU
ENGLISH LANGUAGE FOR MUET,A1020,Certificates,NULL,AeU
INTERNATIONAL FOUNDATION PROGRAMME,F101,Foundation,NULL,AeU
GRADUATE DIPLOMA IN ACCOUNTING,M3030,Graduate Diploma,NULL,AeU
GRADUATE DIPLOMA IN BUSINESS MANAGEMENT,M3020,Graduate Diploma,66,AeU
GRADUATE DIPLOMA IN EARLY CHILDHOOD EDUCATION,E3030,Graduate Diploma,66,AeU
GRADUATE DIPLOMA IN TEACHING,E3050,Graduate Diploma,66,AeU
OPEN PROGRAM,OP888,Certificates,NULL,AeU
DOCTOR OF PHILOSOPHY (FINANCE),G7010,Doctoral,NULL,AeU
BACHELOR OF ARTS (HONS) IN GRAPHIC DESIGN,A3020,Bachelor,120,AeU
POST GRADUATE DIPLOMA IN HIGHER EDUCATION TEACHING,E5010,Postgraduate Diploma,30,AeU
ASIAN EXECUTIVE MASTER OF BUSINESS ADMINISTRATION,M605,Executive Master,NULL,AeU
TAMADUN ISLAM,OC010,Certificates,NULL,AeU
OPEN COURSE - VOID,OC00001X,Certificates,NULL,AeU
OPEN COURSE,OC00001,Certificates,NULL,AeU
MASTER OF BUSINESS ADMINISTRATION,M60117,Diploma,NULL,AeU
DOCTOR OF PHILOSOPHY (SOCIAL AND BEHAVIOURAL SCIENCE),G7020,Doctoral,NULL,AeU
INTENSIVE ENGLISH PROGRAMME,F102,Certificates,NULL,AeU
BACHELOR IN ACCOUNTING,M3040,Bachelor,NULL,AeU
OPEN COURSE,OC010,Certificates,NULL,AeU
